Chapter 4 Descriptive - Primelinary Analysis (Exploratory Data Analysis - EDA) | Data Science Within Monitoring and Evaluation in Humanitarian Context
…
4.2.3.2 Imputation of Missing Values

There are several methods for imputation such as median-mean imputations or one can go all in and use some regressions even. Most of the cases, for some numeric values, you need to replace NAs with zeros in humanitarian data. So lets say, questionnaire designer linked two questions; do you have income?-Yes or no question ; if yes, how much? If the answer is NO, then how much question is not appearing in data, means that this value will be NA. On the other hand, for analysis purposes, you need to embed zero to those values. Happens a lot! Let me show you how I handle this in R (also adding few useful codes that I use during data cleaning);

#Lets do this operation for only numeric columns of diamnonds data.
#setnafill comes with data.table package. Mapping numeric columns map_lgl comes with purrr package.
library(purrr)
library(data.table)
diamonds_missing[ , purrr::map_lgl(diamonds_missing, is.numeric)]

## # A tibble: 53,940 × 7
##    carat depth table price     x     y     z
##    <dbl> <dbl> <dbl> <int> <dbl> <dbl> <dbl>
##  1 NA     61.5    NA   326  3.95 NA     2.43
##  2  0.21  59.8    61   326  3.89  3.84  2.31
##  3  0.23  56.9    65   327  4.05  4.07 NA   
##  4  0.29  62.4    58   334  4.2   4.23  2.63
##  5 NA     63.3    NA   335 NA    NA     2.75
##  6 NA     62.8    NA   336  3.94  3.96  2.48
##  7  0.24  62.3    57   336  3.95  3.98  2.47
##  8  0.26  61.9    55   337  4.07 NA    NA   
##  9 NA     65.1    61   337  3.87  3.78 NA   
## 10 NA     59.4    61   338 NA     4.05  2.39
## # … with 53,930 more rows
…
