Chapter 6 Inferential Statistics | Data Science Within Monitoring and Evaluation in Humanitarian Context
…
stopword <- as_tibble(stopwords::stopwords("en")) 
stopword <- rename(stopword, word=value)
trx3 <- anti_join(trx2, stopword, by = 'word')

Wordcount

#WordCount

library(dplyr)

word_count_TRX <- count(trx3, word, sort = TRUE)
word_count_TRX

## # A tibble: 356 × 2
##    word           n
##    <chr>      <int>
##  1 help          76
##  2 aid           70
##  3 amount        50
##  4 assistance    50
##  5 increase      50
##  6 cash          47
##  7 request       35
##  8 asking        32
##  9 requests      25
## 10 redcross      23
## # … with 346 more rows

WordCount by Author

Here author can be different group; such as; females-males, elderly-younglings etc. Each groups reflection might differ from each other, thus it makes a good analysis of disaggregating texts by authors/attendees.

#Word Count by Auth

author_count_TRX <-  trx3 %>% 
  count(Author, word, sort = TRUE)
author_count_TRX

## # A tibble: 513 × 3
##    Author word           n
##    <chr>  <chr>      <int>
##  1 B      aid           41
##  2 B      help          41
##  3 A      help          35
##  4 B      amount        31
##  5 B      increase      30
##  6 A      aid           29
##  7 B      assistance    27
##  8 B      cash          27
##  9 A      assistance    23
## 10 A      cash          20
## # … with 503 more rows
…
